%YAML 1.1
%TAG !u! tag:unity3d.com,2011:
--- !u!213 &21300000
Sprite:
  m_ObjectHideFlags: 0
  m_CorrespondingSourceObject: {fileID: 0}
  m_PrefabInstance: {fileID: 0}
  m_PrefabAsset: {fileID: 0}
  m_Name: GlassesBigBrenda
  m_Rect:
    serializedVersion: 2
    x: 0
    y: 0
    width: 24
    height: 24
  m_Offset: {x: 0, y: -12}
  m_Border: {x: 0, y: 0, z: 0, w: 0}
  m_PixelsToUnits: 16
  m_Pivot: {x: 0.5, y: 0}
  m_Extrude: 1
  m_IsPolygon: 0
  m_AtlasName: 
  m_PackingTag: 
  m_RenderDataKey:
    d275bc575b07bfa46aaeea2c47681fb0: 7210407333825158730
  m_AtlasTags: []
  m_SpriteAtlas: {fileID: 0}
  m_RD:
    serializedVersion: 3
    texture: {fileID: 2800000, guid: d275bc575b07bfa46aaeea2c47681fb0, type: 3}
    alphaTexture: {fileID: 0}
    secondaryTextures: []
    m_SubMeshes:
    - serializedVersion: 2
      firstByte: 0
      indexCount: 6
      topology: 0
      baseVertex: 0
      firstVertex: 0
      vertexCount: 4
      localAABB:
        m_Center: {x: 0, y: 0, z: 0}
        m_Extent: {x: 0, y: 0, z: 0}
    m_IndexBuffer: 000001000200020001000300
    m_VertexData:
      serializedVersion: 3
      m_VertexCount: 4
      m_Channels:
      - stream: 0
        offset: 0
        format: 0
        dimension: 3
      - stream: 0
        offset: 0
        format: 0
        dimension: 0
      - stream: 0
        offset: 0
        format: 0
        dimension: 0
      - stream: 0
        offset: 0
        format: 0
        dimension: 0
      - stream: 1
        offset: 0
        format: 0
        dimension: 2
      - stream: 0
        offset: 0
        format: 0
        dimension: 0
      - stream: 0
        offset: 0
        format: 0
        dimension: 0
      - stream: 0
        offset: 0
        format: 0
        dimension: 0
      - stream: 0
        offset: 0
        format: 0
        dimension: 0
      - stream: 0
        offset: 0
        format: 0
        dimension: 0
      - stream: 0
        offset: 0
        format: 0
        dimension: 0
      - stream: 0
        offset: 0
        format: 0
        dimension: 0
      - stream: 0
        offset: 0
        format: 0
        dimension: 0
      - stream: 0
        offset: 0
        format: 0
        dimension: 0
      m_DataSize: 80
      _typelessdata: 000040bf0000c03f000000000000403f0000c03f00000000000040bf00000000000000000000403f0000000000000000000000000000803f0000803e0000803f00000000000000000000803e00000000
    m_Bindpose: []
    textureRect:
      serializedVersion: 2
      x: 0
      y: 0
      width: 24
      height: 24
    textureRectOffset: {x: 0, y: 0}
    atlasRectOffset: {x: -1, y: -1}
    settingsRaw: 64
    uvTransform: {x: 16, y: 12, z: 16, w: 0}
    downscaleMultiplier: 1
  m_AtlasRD:
    serializedVersion: 3
    texture: {fileID: 2800000, guid: d275bc575b07bfa46aaeea2c47681fb0, type: 3}
    alphaTexture: {fileID: 0}
    secondaryTextures: []
    m_SubMeshes:
    - serializedVersion: 2
      firstByte: 0
      indexCount: 6
      topology: 0
      baseVertex: 0
      firstVertex: 0
      vertexCount: 4
      localAABB:
        m_Center: {x: 0, y: 0, z: 0}
        m_Extent: {x: 0, y: 0, z: 0}
    m_IndexBuffer: 000001000200020001000300
    m_VertexData:
      serializedVersion: 3
      m_VertexCount: 4
      m_Channels:
      - stream: 0
        offset: 0
        format: 0
        dimension: 3
      - stream: 0
        offset: 0
        format: 0
        dimension: 0
      - stream: 0
        offset: 0
        format: 0
        dimension: 0
      - stream: 0
        offset: 0
        format: 0
        dimension: 0
      - stream: 1
        offset: 0
        format: 0
        dimension: 2
      - stream: 0
        offset: 0
        format: 0
        dimension: 0
      - stream: 0
        offset: 0
        format: 0
        dimension: 0
      - stream: 0
        offset: 0
        format: 0
        dimension: 0
      - stream: 0
        offset: 0
        format: 0
        dimension: 0
      - stream: 0
        offset: 0
        format: 0
        dimension: 0
      - stream: 0
        offset: 0
        format: 0
        dimension: 0
      - stream: 0
        offset: 0
        format: 0
        dimension: 0
      - stream: 0
        offset: 0
        format: 0
        dimension: 0
      - stream: 0
        offset: 0
        format: 0
        dimension: 0
      m_DataSize: 80
      _typelessdata: 000040bf0000c03f000000000000403f0000c03f00000000000040bf00000000000000000000403f0000000000000000000000000000803f0000803e0000803f00000000000000000000803e00000000
    m_Bindpose: []
    textureRect:
      serializedVersion: 2
      x: 0
      y: 0
      width: 24
      height: 24
    textureRectOffset: {x: 0, y: 0}
    atlasRectOffset: {x: -1, y: -1}
    settingsRaw: 64
    uvTransform: {x: 16, y: 12, z: 16, w: 0}
    downscaleMultiplier: 1
  m_PhysicsShape:
  - - {x: -0.25, y: 1.5}
    - {x: -0.6875, y: 1.125}
    - {x: -0.6875, y: 0}
    - {x: 0.625, y: 0}
    - {x: 0.625, y: 1.25}
    - {x: 0.375, y: 1.5}
  m_Bones: []
  m_SpriteID: 05d456126b123bc41858c55c3e0fb76a
